IS415_GAA - Takehome_Ex02
…
Let’s prepare to visualize Gi* by using a HCSA map:

HCSA <- wm_idw %>% 
  mutate(local_Gi = local_gstar_perm(
    Monthly_Vacinnation_Rate, nb, wt, nsim = 99),
         .before = 1) %>%
  unnest(local_Gi)
HCSA

Simple feature collection with 3132 features and 26 fields
Geometry type: MULTIPOLYGON
Dimension:     XY
Bounding box:  xmin: -3644275 ymin: 663887.8 xmax: -3606237 ymax: 701380.1
Projected CRS: DGN95 / Indonesia TM-3 zone 54.1
# A tibble: 3,132 × 27
   gi_star     e_gi   var_gi p_value p_sim p_fold…¹ skewness kurto…² nb    wts  
     <dbl>    <dbl>    <dbl>   <dbl> <dbl>    <dbl>    <dbl>   <dbl> <nb>  <lis>
 1    1.17 0.000322 5.74e-11  0.241   0.28     0.14  0.00228  -0.200 <int> <dbl>
 2    1.29 0.000321 5.33e-11  0.196   0.2      0.1  -0.173     0.316 <int> <dbl>
 3    1.54 0.000319 5.47e-11  0.122   0.16     0.08  0.0828   -0.447 <int> <dbl>
 4    1.67 0.000319 4.96e-11  0.0947  0.08     0.04 -0.159    -0.551 <int> <dbl>
 5    1.49 0.000319 5.57e-11  0.136   0.22     0.11  0.247    -0.198 <int> <dbl>
 6    1.55 0.000318 6.08e-11  0.120   0.16     0.08  0.0780    0.134 <int> <dbl>
 7    1.64 0.000318 5.83e-11  0.100   0.08     0.04 -0.317    -0.277 <int> <dbl>
 8    1.47 0.000319 6.50e-11  0.143   0.14     0.07 -0.490     0.435 <int> <dbl>
 9    1.34 0.000319 7.08e-11  0.181   0.12     0.06 -0.386    -0.835 <int> <dbl>
10    1.34 0.000320 6.21e-11  0.180   0.18     0.09 -0.304    -0.571 <int> <dbl>
# … with 3,122 more rows, 17 more variables: Object_ID <dbl>,
#   Village_Code <chr>, Village <chr>, Code <dbl>, Province <chr>,
#   City.x <chr>, District.x <chr>, Sub_District <chr>, Total_Population <dbl>,
#   Family_Code <chr>, City.y <chr>, District.y <chr>, Target <dbl>,
#   Yet_to_be_Vaccinated <dbl>, date <date>, geometry <MULTIPOLYGON [m]>,
#   Monthly_Vacinnation_Rate <dbl>, and abbreviated variable names
#   ¹​p_folded_sim, ²​kurtosis

HCSA_SIG = HCSA %>% filter(gi_star >1.5)
HCSA_SIG

Simple feature collection with 32 features and 26 fields
Geometry type: MULTIPOLYGON
Dimension:     XY
Bounding box:  xmin: -3627698 ymin: 666548.5 xmax: -3614259 ymax: 693604.4
Projected CRS: DGN95 / Indonesia TM-3 zone 54.1
# A tibble: 32 × 27
   gi_star     e_gi   var_gi p_value p_sim p_folde…¹ skewn…² kurto…³ nb    wts  
 *   <dbl>    <dbl>    <dbl>   <dbl> <dbl>     <dbl>   <dbl>   <dbl> <nb>  <lis>
 1    1.54 0.000319 5.47e-11  0.122   0.16      0.08  0.0828  -0.447 <int> <dbl>
 2    1.67 0.000319 4.96e-11  0.0947  0.08      0.04 -0.159   -0.551 <int> <dbl>
 3    1.55 0.000318 6.08e-11  0.120   0.16      0.08  0.0780   0.134 <int> <dbl>
 4    1.64 0.000318 5.83e-11  0.100   0.08      0.04 -0.317   -0.277 <int> <dbl>
 5    1.55 0.000319 5.41e-11  0.121   0.12      0.06  0.0125   0.408 <int> <dbl>
 6    1.80 0.000318 5.14e-11  0.0712  0.06      0.03 -0.169   -0.372 <int> <dbl>
 7    1.56 0.000320 5.00e-11  0.118   0.1       0.05 -0.571    1.63  <int> <dbl>
 8    1.54 0.000320 5.47e-11  0.123   0.1       0.05 -0.333   -0.330 <int> <dbl>
 9    1.69 0.000319 5.02e-11  0.0907  0.1       0.05 -0.255   -0.223 <int> <dbl>
10    1.63 0.000320 4.60e-11  0.103   0.08      0.04 -0.489   -0.372 <int> <dbl>
# … with 22 more rows, 17 more variables: Object_ID <dbl>, Village_Code <chr>,
#   Village <chr>, Code <dbl>, Province <chr>, City.x <chr>, District.x <chr>,
#   Sub_District <chr>, Total_Population <dbl>, Family_Code <chr>,
#   City.y <chr>, District.y <chr>, Target <dbl>, Yet_to_be_Vaccinated <dbl>,
#   date <date>, geometry <MULTIPOLYGON [m]>, Monthly_Vacinnation_Rate <dbl>,
#   and abbreviated variable names ¹​p_folded_sim, ²​skewness, ³​kurtosis
…
